scorer,,,Aron,Aron,Aron,Aron,Aron,Aron,Aron,Aron,Aron,Aron,Aron,Aron,Aron,Aron,Aron,Aron,Aron,Aron,Aron,Aron,Aron,Aron,Aron,Aron,Aron,Aron,Aron,Aron
bodyparts,,,head,head,neck,neck,R_shoulder,R_shoulder,L_shoulder,L_shoulder,R_elbow,R_elbow,L_elbow,L_elbow,R_wrist,R_wrist,L_wrist,L_wrist,R_hip,R_hip,L_hip,L_hip,R_knee,R_knee,L_knee,L_knee,R_foot,R_foot,L_foot,L_foot
coords,,,x,y,x,y,x,y,x,y,x,y,x,y,x,y,x,y,x,y,x,y,x,y,x,y,x,y,x,y
labeled-data,Video25,img03794.png,318.8835355595309,126.6757334335029,297.9323242670105,128.53806332617137,,,291.4141696426708,148.09252719919047,257.42664910147096,94.08496031180442,239.73451512112035,120.6231612823303,274.6532006086544,65.21884697544291,215.05864404326292,81.04865106312502,,,198.29767500924657,167.64699107220954,,,129.39146898051268,108.51801697998516,,,62.81317531761435,175.5618931160506
labeled-data,Video25,img08272.png,317.95237061319665,128.07248085300427,297.9323242670105,128.53806332617137,,,292.34533458900506,156.00742924303154,261.61689135997506,89.89471805330035,242.5280099601231,126.67573343350287,240.2000975942874,51.25137278042929,225.30145845293958,86.63564074113049,,,191.31393791173974,170.44048591121228,,,126.59797414150995,110.38034687265366,,,64.20992273711569,169.97490343804515
labeled-data,Video25,img15779.png,317.48678814002955,129.0036457993385,296.069994374342,127.14131590667,,,292.34533458900506,156.00742924303154,263.94480372581063,89.89471805330035,242.9935924332902,129.4692282725056,240.2000975942874,51.25137278042929,226.23262339927385,89.42913558013322,,,188.52044307273707,170.44048591121228,,,121.0109844635045,112.24267676532216,,,54.898273273773256,158.3353416088671
labeled-data,Video25,img20701.png,315.6244582473611,127.60689837983713,295.6044119011749,130.86597569200697,,,295.13882942800774,162.06000139420408,271.39412329648457,83.84214590212775,,,288.62067480366807,110.38034687265366,,,,,190.38277296540554,164.8534962332068,,,122.87331435617297,101.53427988247836,,,80.50530929796496,164.3879137600397
labeled-data,Video25,img35600.png,315.6244582473611,127.60689837983713,295.6044119011749,130.86597569200697,,,286.7583449109996,156.47301171619864,269.5317934038161,82.91098095579349,,,278.84344286715856,108.9835994531523,,,,,190.38277296540554,164.8534962332068,,,122.87331435617297,101.53427988247836,,,80.50530929796496,164.3879137600397
