scorer,,,Aron,Aron,Aron,Aron,Aron,Aron,Aron,Aron,Aron,Aron,Aron,Aron,Aron,Aron,Aron,Aron,Aron,Aron,Aron,Aron,Aron,Aron,Aron,Aron,Aron,Aron,Aron,Aron
bodyparts,,,head,head,neck,neck,R_shoulder,R_shoulder,L_shoulder,L_shoulder,R_elbow,R_elbow,L_elbow,L_elbow,R_wrist,R_wrist,L_wrist,L_wrist,R_hip,R_hip,L_hip,L_hip,R_knee,R_knee,L_knee,L_knee,R_foot,R_foot,L_foot,L_foot
coords,,,x,y,x,y,x,y,x,y,x,y,x,y,x,y,x,y,x,y,x,y,x,y,x,y,x,y,x,y
labeled-data,Video91,img00362.png,47.295477583728825,151.62315284606342,71.97134866158625,156.27897757773465,84.5420754370985,173.50552908491812,83.61091049076427,142.77708585588812,95.2504723199423,211.21770941145493,108.75236404178881,182.35159607509343,63.125281671410946,205.16513726028236,84.5420754370985,192.12882801160296,165.55342576817756,150.69198789972918,171.60599791935016,133.4654363925457,196.74745147037467,227.97867844547127,200.47211125571164,210.2865444651207,298.7100130939742,218.20144650896174,303.3658378256454,183.28276102142766
labeled-data,Video91,img10754.png,46.82989511056171,159.5380548899045,69.64343629575063,159.07247241673736,84.0764929639314,180.48926618242493,84.5420754370985,157.21014252406889,91.52581253460534,211.21770941145493,114.80493619296138,190.2664981189345,61.72853425190958,204.2339723139481,89.66348264193684,189.80091564576736,166.0190082413447,157.21014252406889,173.0027453388515,138.58684359738405,201.868858675213,217.73586403579463,208.8525957727198,209.82096199195357,287.07045126479613,220.06377640163024,280.55229664045646,180.48926618242493
labeled-data,Video91,img20248.png,46.82989511056171,159.5380548899045,70.10901876891775,159.5380548899045,84.0764929639314,181.8860136019263,84.5420754370985,157.21014252406889,91.52581253460534,211.21770941145493,114.80493619296138,190.2664981189345,61.72853425190958,204.2339723139481,90.12906511510394,193.52557543110433,166.0190082413447,157.21014252406889,173.0027453388515,138.58684359738405,201.868858675213,217.73586403579463,208.8525957727198,209.82096199195357,287.07045126479613,220.06377640163024,280.55229664045646,180.48926618242493
labeled-data,Video91,img30000.png,44.03640027155899,155.81339510456752,70.10901876891776,161.8659672557401,,,93.3881424272738,157.21014252406889,130.63474028064348,205.63071973344947,120.85750834413395,180.95484865559206,98.50954963211214,212.6144568309563,92.45697748093957,193.05999295793723,167.41575566084606,164.65946209474282,174.86507523152,146.96732811439222,206.52468340688424,227.97867844547127,217.233080289728,209.82096199195357,287.07045126479613,223.32285371380007,297.7788481476399,180.95484865559206
labeled-data,Video91,img47030.png,44.03640027155899,155.81339510456752,70.10901876891776,161.8659672557401,,,93.3881424272738,157.21014252406889,130.63474028064348,205.63071973344947,120.85750834413395,180.95484865559206,97.57838468577788,209.82096199195357,89.66348264193681,194.9223228506057,169.27808555351456,161.8659672557401,176.7274051241885,144.17383327538948,206.52468340688424,227.97867844547127,217.233080289728,209.82096199195357,287.07045126479613,223.32285371380007,297.7788481476399,180.95484865559206
