scorer,,,Aron,Aron,Aron,Aron,Aron,Aron,Aron,Aron,Aron,Aron,Aron,Aron,Aron,Aron,Aron,Aron,Aron,Aron,Aron,Aron,Aron,Aron,Aron,Aron,Aron,Aron,Aron,Aron
bodyparts,,,head,head,neck,neck,R_shoulder,R_shoulder,L_shoulder,L_shoulder,R_elbow,R_elbow,L_elbow,L_elbow,R_wrist,R_wrist,L_wrist,L_wrist,R_hip,R_hip,L_hip,L_hip,R_knee,R_knee,L_knee,L_knee,R_foot,R_foot,L_foot,L_foot
coords,,,x,y,x,y,x,y,x,y,x,y,x,y,x,y,x,y,x,y,x,y,x,y,x,y,x,y,x,y
labeled-data,Video48,img00311.png,335.1207766270309,132.48579106612658,316.70833169563997,141.90611172869873,,,312.4263677581072,155.6083963288036,318.42111727065304,100.79925792838404,273.0322995328056,143.61889730371186,313.2827605456137,122.63727400980122,277.7424598640917,107.6504002284365,,,220.36414310115248,180.871983560247,,,153.99370206939443,115.78613170974877,,,103.89472400026095,197.57164291662482
labeled-data,Video48,img03548.png,330.8388126894981,128.2038271285938,316.70833169563997,136.7677550036594,,,309.8571893955875,151.32643239127086,,,260.6146041139606,126.49104155358071,305.5752254580547,110.21957859095616,262.75558608272695,83.67140217825293,,,211.60086469285977,177.11473566589976,,,151.9515366245049,112.7145761584724,69.07592152068446,171.83603406693032,102.33174159419204,188.72787918363258
labeled-data,Video48,img16554.png,334.0060336488798,128.2038271285938,316.70833169563997,137.82349532345327,,,309.8571893955875,151.32643239127086,,,271.1720073118995,120.15659963481735,314.02114801640585,108.6359681112653,274.8965997603567,82.0877916985621,,,214.24021549234448,180.80982678517836,,,147.72857534532938,119.57688823713269,,,98.10878031501647,199.8131525414684
labeled-data,Video48,img16870.png,337.7011247681584,134.0103988874602,318.81981233522777,138.87923564324714,,,309.8571893955875,151.32643239127086,,,265.89330571293004,130.18613267285932,314.02114801640585,108.6359681112653,269.61789816138725,88.9501037772224,,,215.8238259720353,179.22621630548753,,,148.78431566512324,123.27197935641132,,,98.10878031501647,199.8131525414684
labeled-data,Video48,img21485.png,338.2289949280554,138.76123032653268,317.76407201543384,141.51858644273187,,,309.8571893955875,161.88383558920975,,,264.3096952332392,135.9927044317257,310.8539270570241,114.97041003002866,291.26057471716206,116.39935209186358,,,216.35169613193221,182.3934372648692,,,150.89579630471104,122.74410919651436,,,98.10878031501647,199.8131525414684
