scorer,,,Aron,Aron,Aron,Aron,Aron,Aron,Aron,Aron,Aron,Aron,Aron,Aron,Aron,Aron,Aron,Aron,Aron,Aron,Aron,Aron,Aron,Aron,Aron,Aron,Aron,Aron,Aron,Aron
bodyparts,,,head,head,neck,neck,R_shoulder,R_shoulder,L_shoulder,L_shoulder,R_elbow,R_elbow,L_elbow,L_elbow,R_wrist,R_wrist,L_wrist,L_wrist,R_hip,R_hip,L_hip,L_hip,R_knee,R_knee,L_knee,L_knee,R_foot,R_foot,L_foot,L_foot
coords,,,x,y,x,y,x,y,x,y,x,y,x,y,x,y,x,y,x,y,x,y,x,y,x,y,x,y,x,y
labeled-data,Video68,img01865.png,313.88898849604004,129.020404665522,283.16054526701004,134.14181187036033,265.4684112866595,100.61987380232762,279.4358854816731,161.14559531405334,223.10040622845145,90.84264186581805,242.65487010147052,178.83772929440394,213.78875676510904,135.07297681669456,241.72370515513626,140.65996649470003,183.99147848241324,133.2106469240261,193.30312794575565,172.78515714323137,123.0001744975204,152.76511079704517,131.38065901452853,184.89030144557654,35.93625201526875,171.85399219689714,37.79858190793722,192.33962101625045
labeled-data,Video68,img16002.png,313.88898849604004,129.020404665522,283.16054526701004,134.14181187036033,265.4684112866595,100.61987380232762,279.4358854816731,161.14559531405334,223.10040622845145,90.84264186581805,242.65487010147052,178.83772929440394,226.35948354062134,129.02040466552197,241.72370515513626,140.65996649470003,183.99147848241324,133.2106469240261,193.30312794575565,172.78515714323137,123.0001744975204,152.76511079704517,131.38065901452853,184.89030144557654,35.93625201526875,171.85399219689714,37.79858190793722,192.33962101625045
labeled-data,Video68,img21008.png,313.88898849604004,129.020404665522,283.16054526701004,134.14181187036033,265.4684112866595,100.61987380232762,279.4358854816731,161.14559531405334,223.10040622845145,90.84264186581805,242.65487010147052,178.83772929440394,226.35948354062134,129.02040466552197,241.72370515513626,140.65996649470003,183.99147848241324,133.2106469240261,193.30312794575565,172.78515714323137,123.0001744975204,152.76511079704517,131.38065901452853,184.89030144557654,35.005087068934515,165.33583757255744,36.867416961602984,185.82146639191075
labeled-data,Video68,img25274.png,313.88898849604004,132.74506445085896,283.16054526701004,134.14181187036033,265.9339937598266,104.81011606083172,279.4358854816731,161.14559531405334,221.70365880895008,97.36079649015775,242.65487010147052,178.83772929440394,223.5659887016186,138.7976366020315,241.72370515513626,144.85020875320413,183.99147848241324,133.2106469240261,193.30312794575565,172.78515714323137,124.86250439018893,152.76511079704517,133.24298890719706,184.89030144557654,31.74600975676465,189.08054370408058,33.60833964943312,209.5661725234339
labeled-data,Video68,img31182.png,315.2857359155414,135.07297681669456,283.16054526701004,134.14181187036033,265.9339937598266,104.81011606083172,279.4358854816731,161.14559531405334,224.4971536479528,91.77380681215229,242.65487010147052,178.83772929440394,223.5659887016186,138.7976366020315,241.72370515513626,144.85020875320413,183.99147848241324,133.2106469240261,193.30312794575565,172.78515714323137,124.86250439018893,152.76511079704517,133.24298890719706,184.89030144557654,31.74600975676465,189.08054370408058,39.19532932743856,213.756414781938
