scorer,,,Aron,Aron,Aron,Aron,Aron,Aron,Aron,Aron,Aron,Aron,Aron,Aron,Aron,Aron,Aron,Aron,Aron,Aron,Aron,Aron,Aron,Aron,Aron,Aron,Aron,Aron,Aron,Aron
bodyparts,,,head,head,neck,neck,R_shoulder,R_shoulder,L_shoulder,L_shoulder,R_elbow,R_elbow,L_elbow,L_elbow,R_wrist,R_wrist,L_wrist,L_wrist,R_hip,R_hip,L_hip,L_hip,R_knee,R_knee,L_knee,L_knee,R_foot,R_foot,L_foot,L_foot
coords,,,x,y,x,y,x,y,x,y,x,y,x,y,x,y,x,y,x,y,x,y,x,y,x,y,x,y,x,y
labeled-data,Video77,img06264.png,312.4997147209749,144.70628781612137,286.4270962236161,152.15560738679528,284.56476633094763,118.16808684559544,278.51219417977507,181.95288566949102,231.48836438989582,88.3708085628997,232.8851118093972,211.7501639521868,199.3631737413645,100.94153533841197,183.0677871805152,202.4385144888444,196.56967890236177,120.96158168459817,185.86128201951794,166.12308158180892,112.29925125911284,86.50847867023121,109.97133889327723,205.2320093278471,41.53071533771042,106.52852501641742,64.34425652289936,128.4109012552721
labeled-data,Video77,img13092.png,319.01786934531464,153.55235480629668,285.961513750449,155.41468469896515,285.0303488041148,114.44342706025847,278.04661170660796,185.677545454828,252.90515815558342,81.85265393856,249.18049837024643,220.13064846919497,215.19297782904658,88.83639103606681,210.07157062420828,234.0981226642086,198.89759126819735,120.03041673826394,195.1729314828604,167.05424652814315,107.1778440542745,105.59736007008317,112.29925125911284,166.58866405497605,37.34047307920632,99.07920544574345,44.78979264988028,122.82391157726666
labeled-data,Video77,img32242.png,316.689956979479,155.41468469896517,285.961513750449,155.41468469896515,283.6336013846134,115.3745920065927,278.97777665294217,185.2119629816609,238.93768396056976,84.64614877756273,248.24933342391222,221.99297836186344,202.15666858036718,86.50847867023121,227.29812213139172,197.31710728400603,196.56967890236177,117.2369218992612,190.9826892243563,163.32958674280619,109.040173946943,93.95779824090515,113.6959986786142,169.8477413671459,40.599550391376184,102.33828275791332,61.550761683896624,125.15182394310226
labeled-data,Video77,img42363.png,312.965297194142,150.29327749412684,284.09918385778053,152.6211898599624,278.97777665294217,113.51226211392424,278.97777665294217,186.60871040116226,240.33443138007112,81.85265393856,245.9214210580766,216.87157115702513,200.75992116086582,93.95779824090515,217.5208901948822,205.6975918010142,191.4482716975234,120.49599921143104,190.05152427802204,164.26075168914045,109.5057564201101,89.30197350923395,104.38434921527177,167.05424652814315,40.599550391376184,107.45968996275165,59.22284931806102,127.01415383577073
labeled-data,Video77,img62849.png,309.24063740880507,170.77890631348015,282.23685396511206,162.86400426963908,295.2731632137914,127.01415383577074,272.4596220286025,184.74638050849376,289.22059106261884,79.5247415727244,229.62603449722735,216.87157115702513,285.4959312772819,129.34206620160634,260.35447772625736,209.4222515863512,201.69108610720008,105.59736007008317,187.72361191218647,147.49978265512408,125.80114298095934,123.28949405043377,115.55832857128267,167.51982900131028,72.25915856674042,89.76755598240105,69.46566372773769,115.84017447975982
