scorer,,,Aron,Aron,Aron,Aron,Aron,Aron,Aron,Aron,Aron,Aron,Aron,Aron,Aron,Aron,Aron,Aron,Aron,Aron,Aron,Aron,Aron,Aron,Aron,Aron,Aron,Aron,Aron,Aron
bodyparts,,,head,head,neck,neck,R_shoulder,R_shoulder,L_shoulder,L_shoulder,R_elbow,R_elbow,L_elbow,L_elbow,R_wrist,R_wrist,L_wrist,L_wrist,R_hip,R_hip,L_hip,L_hip,R_knee,R_knee,L_knee,L_knee,R_foot,R_foot,L_foot,L_foot
coords,,,x,y,x,y,x,y,x,y,x,y,x,y,x,y,x,y,x,y,x,y,x,y,x,y,x,y,x,y
labeled-data,Video99,img00060.png,69.44831774784511,140.10991832419583,98.9065799055029,142.7536085178318,101.92794012680113,175.98857095211238,107.21532051407306,109.14097605588893,128.3648420631607,204.31382302678333,142.71630311432733,86.85844442381445,171.41922521666058,200.53712275016053,155.9347540825071,112.91767633251172,206.16486776159027,170.32352053717818,203.14350754029203,123.87010713471784,272.2571226024892,181.2759513393843,272.2571226024892,128.77981749432746,333.81733711144074,180.898281311722,339.1047174987126,131.04583766030115
labeled-data,Video99,img20521.png,69.44831774784511,140.10991832419583,98.9065799055029,142.7536085178318,101.92794012680113,175.98857095211238,107.21532051407306,109.14097605588893,128.3648420631607,204.31382302678333,142.71630311432733,86.85844442381445,171.0415551889983,197.5157625288623,155.9347540825071,112.91767633251172,206.16486776159027,170.32352053717818,203.14350754029203,123.87010713471784,272.2571226024892,181.2759513393843,272.2571226024892,128.77981749432746,333.81733711144074,180.898281311722,339.1047174987126,131.04583766030115
labeled-data,Video99,img25461.png,84.17744882667401,173.34488075847642,105.32697037576165,155.5943894583493,114.76872106731864,187.31867178198075,102.68328018212571,111.78466624952489,141.20562300367817,213.75557371834032,125.34348184186248,86.48077439615217,164.62116471873952,189.58469194795444,149.13669358458608,106.87495588991527,200.1221473189938,166.5468202605554,201.63282742964293,118.58272674744592,249.97459097041468,215.26625382898945,258.28333157898487,122.73709705173098,308.513445258068,170.32352053717818,322.1095662539101,131.42350768796342
labeled-data,Video99,img28795.png,84.17744882667401,173.34488075847642,105.32697037576165,155.5943894583493,114.76872106731864,187.31867178198075,102.68328018212571,111.78466624952489,141.20562300367817,213.75557371834032,125.34348184186248,86.48077439615217,167.26485491237548,187.31867178198075,149.13669358458608,106.87495588991527,200.1221473189938,166.5468202605554,201.63282742964293,118.58272674744592,249.97459097041468,215.26625382898945,258.28333157898487,122.73709705173098,308.513445258068,170.32352053717818,322.1095662539101,131.42350768796342
labeled-data,Video99,img36962.png,93.99686954589328,199.78178269483598,106.83765048641078,185.80799167133165,120.05610145459056,203.55848297145877,114.39105103965636,167.67983034354225,138.18426278237996,226.59635465885782,166.8871848847132,187.69634180964303,156.3124241101694,255.29927676119104,161.5998044974413,203.55848297145877,195.21243695938418,141.62059843484496,198.6114672083447,126.51379732835377,242.42119041716907,212.6225636353535,245.44255063846734,202.42547288847194,311.53480547936624,136.33321804757304,302.84839484313386,128.40214746666518
