scorer,,,Aron,Aron,Aron,Aron,Aron,Aron,Aron,Aron,Aron,Aron,Aron,Aron,Aron,Aron,Aron,Aron,Aron,Aron,Aron,Aron,Aron,Aron,Aron,Aron,Aron,Aron,Aron,Aron
bodyparts,,,head,head,neck,neck,R_shoulder,R_shoulder,L_shoulder,L_shoulder,R_elbow,R_elbow,L_elbow,L_elbow,R_wrist,R_wrist,L_wrist,L_wrist,R_hip,R_hip,L_hip,L_hip,R_knee,R_knee,L_knee,L_knee,R_foot,R_foot,L_foot,L_foot
coords,,,x,y,x,y,x,y,x,y,x,y,x,y,x,y,x,y,x,y,x,y,x,y,x,y,x,y,x,y
labeled-data,Video39,img04277.png,308.3495616027309,135.96868102519284,290.1918451492132,139.2277583373627,,,267.8438864371914,154.12639747871057,252.01408234950924,104.30907284982864,210.57724223763546,155.9887273713791,229.20054116432033,71.71829972813015,165.88132481359182,134.57193360569153,,,178.4520515891041,155.52314489821197,,,137.94637642356457,86.61693886947806,,,51.81361888764714,107.56815016199852
labeled-data,Video39,img17848.png,308.3495616027309,135.96868102519284,290.1918451492132,139.2277583373627,,,266.9127214908571,141.0900882300312,253.41082976901055,101.98116048399307,218.4921442814765,116.41421715217379,274.8276235346982,80.56436671830544,228.26937621798604,79.1676192988041,,,177.52088664276985,151.798485112875,,,137.94637642356457,86.61693886947806,,,55.538278672984106,117.81096457167519
labeled-data,Video39,img23603.png,307.8839791295637,133.6407686593572,290.1918451492132,149.9361552202065,,,263.1880617055201,167.6282892005571,253.8764122421777,102.4467429571602,212.43957213030393,177.40552113706667,274.3620410615311,76.83970693296847,168.2092371794274,166.23154178105574,,,174.72739180376712,150.86732016654076,,,131.4282217992249,95.92858833282047,,,57.40060856565259,126.65703156185049
labeled-data,Video39,img32438.png,307.8839791295637,133.6407686593572,290.1918451492132,149.9361552202065,,,263.1880617055201,167.6282892005571,249.2205875105065,106.17140274249716,211.04282471080256,171.3529489858941,228.26937621798606,67.99363994279317,192.8851082572848,127.12261403501756,,,166.81248975992608,157.38547479088047,,,119.32307749687975,107.5681501619985,,,36.449397273132135,111.29280994733551
labeled-data,Video39,img33882.png,309.74630902223225,152.7296500592092,278.08670084686804,149.00499027387224,283.20810805170635,126.65703156185045,285.0704379443749,180.66459844923648,248.7550050373394,106.63698521566424,252.9452472958435,193.7009076979159,226.4070463253176,73.11504714763151,283.20810805170635,156.9198923177133,196.6097680426218,122.00120683017926,176.58972169643562,163.43804694205303,147.72360836007408,67.52805746962609,109.54584556037018,122.9323717765135,70.90250028749911,84.75460897680958,35.5182323267979,124.32911919601489
