scorer,,,Aron,Aron,Aron,Aron,Aron,Aron,Aron,Aron,Aron,Aron,Aron,Aron,Aron,Aron,Aron,Aron,Aron,Aron,Aron,Aron,Aron,Aron,Aron,Aron,Aron,Aron,Aron,Aron
bodyparts,,,head,head,neck,neck,R_shoulder,R_shoulder,L_shoulder,L_shoulder,R_elbow,R_elbow,L_elbow,L_elbow,R_wrist,R_wrist,L_wrist,L_wrist,R_hip,R_hip,L_hip,L_hip,R_knee,R_knee,L_knee,L_knee,R_foot,R_foot,L_foot,L_foot
coords,,,x,y,x,y,x,y,x,y,x,y,x,y,x,y,x,y,x,y,x,y,x,y,x,y,x,y,x,y
labeled-data,Video51,img03169.png,312.1497870875206,184.315766526796,295.8776332808065,168.49227304555006,289.35947865646676,132.17684013851462,273.9952570419518,186.18440702590064,241.4044839202533,121.46844325567082,242.33564886658758,213.65377294276078,205.08905101321784,153.12805143103506,245.5947261787574,191.30581423073897,185.53458714019877,111.69121131916128,,,135.7172625113168,190.37464928440474,118.95629347730043,151.26572153836656,50.050087448566515,203.41095853308414,24.44305142437487,171.28576788455277
labeled-data,Video51,img14257.png,302.8381376241782,192.69625104380418,292.1529734954695,175.4760101430569,282.84132403212703,163.83644831387886,266.08035499811075,196.42722143557728,226.97142725207254,167.56110809921583,242.80123133975474,216.91285025493062,229.29933961790812,196.42722143557734,252.11288080309708,197.82396885507865,186.93133455970013,117.27820099716675,,,135.7172625113168,190.37464928440474,118.95629347730043,151.26572153836656,50.050087448566515,203.41095853308414,24.44305142437487,171.28576788455277
labeled-data,Video51,img19138.png,302.8381376241782,192.69625104380418,292.1529734954695,175.4760101430569,282.84132403212703,163.83644831387886,269.8050147834477,193.63372659657455,229.29933961790817,181.06299982106236,242.80123133975474,216.91285025493062,226.04026230573822,206.67003584525398,252.11288080309708,197.82396885507865,186.93133455970013,110.29446389965995,,,131.5270202528127,183.85649466006507,129.66469036014422,182.9253297137308,87.2966853019362,112.62237626549552,87.76226777510335,108.89771648015855
labeled-data,Video51,img34092.png,302.8381376241782,192.69625104380418,292.1529734954695,175.4760101430569,282.84132403212703,163.83644831387886,270.2705972566148,200.15188122091425,232.0928344569109,181.06299982106236,253.0440457494314,223.89658735243745,226.04026230573822,206.67003584525398,247.45705607142588,199.68629874774712,186.93133455970013,112.15679379232844,,,125.4744481016401,180.59741734789523,121.28420584313606,181.99416476739657,87.2966853019362,108.43213400699142,72.39804616058835,119.14053088983522
labeled-data,Video51,img53267.png,303.3037200973453,192.69625104380418,291.68739102230234,179.20066992839386,283.30690650529414,166.16436067971446,273.5296745687846,199.68629874774712,232.0928344569109,181.06299982106236,248.3882210177602,220.1719275671005,245.5947261787573,203.41095853308408,258.16545295426965,205.27328842575258,183.20667477436314,114.01912368499691,,,118.02512853096617,173.1480977772213,116.62838111146486,174.54484519672263,80.77853067759649,93.99907733881068,60.29290185824321,104.70747422165445
