scorer,,,Aron,Aron,Aron,Aron,Aron,Aron,Aron,Aron,Aron,Aron,Aron,Aron,Aron,Aron,Aron,Aron,Aron,Aron,Aron,Aron,Aron,Aron,Aron,Aron,Aron,Aron,Aron,Aron
bodyparts,,,head,head,neck,neck,R_shoulder,R_shoulder,L_shoulder,L_shoulder,R_elbow,R_elbow,L_elbow,L_elbow,R_wrist,R_wrist,L_wrist,L_wrist,R_hip,R_hip,L_hip,L_hip,R_knee,R_knee,L_knee,L_knee,R_foot,R_foot,L_foot,L_foot
coords,,,x,y,x,y,x,y,x,y,x,y,x,y,x,y,x,y,x,y,x,y,x,y,x,y,x,y,x,y
labeled-data,Video85,img38339.png,44.167846189982065,154.50610408310877,71.63721210684221,154.9716865562759,82.81119146285312,183.3722174194703,83.74235640918738,114.46601139073634,117.26429447722009,217.35973796067015,130.3006037258995,95.84271246405152,162.42579437443084,217.35973796067015,169.87511394510477,96.30829493721865,173.13419125727467,177.31964526829776,174.530938676776,126.57115569308155,250.42088180301673,178.25081021463197,247.1618044908469,122.38091343457744,323.98291256342185,181.97546999996896,321.1894177244191,137.27955257592532
labeled-data,Video85,img66460.png,44.167846189982065,158.23076386844573,71.63721210684221,154.9716865562759,82.81119146285312,183.3722174194703,83.74235640918738,114.46601139073634,117.26429447722009,217.35973796067015,130.3006037258995,95.84271246405152,162.42579437443084,217.35973796067015,169.87511394510477,96.30829493721865,173.13419125727467,177.31964526829776,174.530938676776,126.57115569308155,250.42088180301673,178.25081021463197,247.1618044908469,122.38091343457744,323.98291256342185,181.97546999996896,321.1894177244191,137.27955257592532
labeled-data,Video85,img75866.png,45.56459360948342,145.19445461976636,73.49954199951071,150.7814442977718,82.81119146285312,183.3722174194703,83.74235640918738,114.46601139073634,117.26429447722009,217.35973796067015,130.3006037258995,95.84271246405152,162.42579437443084,217.35973796067015,169.87511394510477,96.30829493721865,173.13419125727467,177.31964526829776,174.530938676776,126.57115569308155,247.627386964014,169.40474322445667,228.53850556416202,82.34082074220503,323.98291256342185,181.97546999996896,321.1894177244191,137.27955257592532
labeled-data,Video85,img84172.png,45.0990111363163,158.23076386844576,73.49954199951071,150.7814442977718,82.81119146285312,183.3722174194703,83.74235640918738,114.46601139073634,117.26429447722009,217.35973796067015,130.3006037258995,95.84271246405152,162.42579437443084,217.35973796067015,169.87511394510477,96.30829493721865,173.13419125727467,177.31964526829776,174.530938676776,126.57115569308155,247.627386964014,169.40474322445667,228.53850556416202,82.34082074220503,323.98291256342185,181.97546999996896,321.1894177244191,137.27955257592532
labeled-data,Video85,img90451.png,43.236681243647816,145.19445461976633,71.63721210684221,154.04052160994166,82.81119146285312,183.3722174194703,83.74235640918738,114.46601139073634,117.26429447722009,217.35973796067015,130.3006037258995,95.84271246405152,162.42579437443084,217.35973796067015,169.87511394510477,96.30829493721865,174.0653562036089,177.7852277414649,175.46210362311024,127.03673816624868,252.7487941688523,178.25081021463197,249.48971685668246,122.38091343457744,327.7075723487588,179.18197516096623,322.1205826707533,131.69256289791988
