scorer,,,Aron,Aron,Aron,Aron,Aron,Aron,Aron,Aron,Aron,Aron,Aron,Aron,Aron,Aron,Aron,Aron,Aron,Aron,Aron,Aron,Aron,Aron,Aron,Aron,Aron,Aron,Aron,Aron
bodyparts,,,head,head,neck,neck,R_shoulder,R_shoulder,L_shoulder,L_shoulder,R_elbow,R_elbow,L_elbow,L_elbow,R_wrist,R_wrist,L_wrist,L_wrist,R_hip,R_hip,L_hip,L_hip,R_knee,R_knee,L_knee,L_knee,R_foot,R_foot,L_foot,L_foot
coords,,,x,y,x,y,x,y,x,y,x,y,x,y,x,y,x,y,x,y,x,y,x,y,x,y,x,y,x,y
labeled-data,Video49,img07795.png,341.826465990078,147.59864149462229,312.96035265371654,150.39213633362502,305.9766155562097,108.95529622175124,301.3207908245385,178.3270847236523,269.19560017600713,83.34826019755957,258.48720329316336,198.3471310698385,284.094239317355,113.14553848025531,285.49098673685637,180.6549970894879,202.1517240399417,111.28320858758684,212.39453844961838,177.86150225048516,129.98644069903793,123.388352889932,137.90134274287902,174.1368424651482,28.02387907543843,140.14932192394838,38.2666934851151,171.80893009931262
labeled-data,Video49,img18247.png,340.42971857057665,147.13305902145515,315.7538474927193,147.13305902145515,304.11428566354124,110.81762611441971,301.7863732977056,178.7926671968194,,,262.2118630785003,196.01921870400287,,,,,209.13546113744854,129.90650751427168,207.27313124478002,176.93033730415092,143.9539148940516,135.49349719227715,149.0753220988899,179.25824966998653,49.90625531429312,156.44470848479762,50.837420260627354,168.08427031397565
labeled-data,Video49,img26560.png,340.42971857057665,147.13305902145515,315.7538474927193,147.13305902145515,304.11428566354124,110.81762611441971,301.7863732977056,178.7926671968194,,,268.73001770284,196.48480117717,,,222.63735285929505,226.28207945986574,209.13546113744854,129.90650751427168,207.27313124478002,176.93033730415092,143.9539148940516,135.49349719227715,149.0753220988899,179.25824966998653,49.90625531429312,156.44470848479762,50.837420260627354,168.08427031397565
labeled-data,Video49,img26972.png,340.42971857057665,147.13305902145515,315.7538474927193,147.13305902145515,304.11428566354124,110.81762611441971,301.7863732977056,178.7926671968194,,,268.73001770284,200.6750434356741,,,222.63735285929505,223.95416709403017,209.13546113744854,129.90650751427168,207.27313124478002,176.93033730415092,143.9539148940516,135.49349719227715,149.0753220988899,179.25824966998653,49.90625531429312,156.44470848479762,50.837420260627354,168.08427031397565
labeled-data,Video49,img37345.png,340.42971857057665,147.13305902145515,315.7538474927193,147.13305902145515,304.11428566354124,110.81762611441971,301.7863732977056,178.7926671968194,,,267.3332702833386,201.60620838200833,,,223.5685178056293,233.7313990305397,209.13546113744854,129.90650751427168,207.27313124478002,176.93033730415092,143.9539148940516,135.49349719227715,149.0753220988899,179.25824966998653,49.90625531429312,156.44470848479762,50.837420260627354,168.08427031397565
