scorer,,,Aron,Aron,Aron,Aron,Aron,Aron,Aron,Aron,Aron,Aron,Aron,Aron,Aron,Aron,Aron,Aron,Aron,Aron,Aron,Aron,Aron,Aron,Aron,Aron,Aron,Aron,Aron,Aron
bodyparts,,,head,head,neck,neck,R_shoulder,R_shoulder,L_shoulder,L_shoulder,R_elbow,R_elbow,L_elbow,L_elbow,R_wrist,R_wrist,L_wrist,L_wrist,R_hip,R_hip,L_hip,L_hip,R_knee,R_knee,L_knee,L_knee,R_foot,R_foot,L_foot,L_foot
coords,,,x,y,x,y,x,y,x,y,x,y,x,y,x,y,x,y,x,y,x,y,x,y,x,y,x,y,x,y
labeled-data,Video109,img01261.png,326.7881645345076,115.59503715916179,301.5009424166325,117.15117390487717,,,300.33383985734594,140.49322509060806,251.3155323673111,102.36787482058097,234.19802816444178,115.98407134559062,278.5479254173304,78.63678944842123,262.9865579601765,80.19292619413662,195.29460952155694,173.56113093706014,196.46171208084348,168.50368651348512,136.16141318437207,115.20600297273292,136.16141318437207,108.98145598987135,77.80628522004486,170.0598232592005,73.91594335575637,164.61334464919662
labeled-data,Video109,img12713.png,326.7881645345076,115.59503715916179,301.5009424166325,117.15117390487717,,,300.33383985734594,140.49322509060806,251.3155323673111,102.36787482058097,234.19802816444178,115.98407134559062,278.93695960375925,75.91355014341929,263.37559214660536,77.46968688913468,195.29460952155694,173.56113093706014,196.46171208084348,168.50368651348512,136.16141318437207,115.20600297273292,136.16141318437207,108.98145598987135,77.80628522004486,170.0598232592005,73.91594335575637,164.61334464919662
labeled-data,Video109,img14213.png,326.7881645345076,115.59503715916179,301.5009424166325,117.15117390487717,,,300.33383985734594,140.49322509060806,251.3155323673111,102.36787482058097,234.19802816444178,115.98407134559062,278.93695960375925,75.91355014341929,263.37559214660536,77.46968688913468,195.29460952155694,173.56113093706014,196.46171208084348,168.50368651348512,136.16141318437207,115.20600297273292,136.16141318437207,108.98145598987135,77.80628522004486,170.0598232592005,73.91594335575637,164.61334464919662
labeled-data,Video109,img14584.png,326.7881645345076,115.59503715916179,301.5009424166325,117.15117390487717,,,300.33383985734594,140.49322509060806,251.3155323673111,102.36787482058097,234.19802816444178,115.98407134559062,282.4382672816189,79.02582363485007,266.876899824465,80.58196038056546,195.29460952155694,173.56113093706014,196.46171208084348,168.50368651348512,136.16141318437207,115.20600297273292,136.16141318437207,108.98145598987135,80.91855871147565,172.00499419134474,77.02821684718717,166.55851558134086
labeled-data,Video109,img16210.png,332.23464314451144,123.7647550741676,306.5583868402075,135.04674648060418,286.32860914590736,108.20338761701368,306.5583868402075,161.50107115776586,243.14581445230527,115.98407134559062,259.4852502823169,156.44362673419081,260.65235284160343,69.68900316055772,265.3207630787496,113.64986622701755,197.2397804537012,125.70992600631183,201.13012231798967,170.0598232592005,122.9342508457912,127.65509693845607,124.10135340507775,179.7856779199217,42.40417425501967,143.99453276846768,39.291900763588885,163.4462420899101
