scorer,,,Aron,Aron,Aron,Aron,Aron,Aron,Aron,Aron,Aron,Aron,Aron,Aron,Aron,Aron,Aron,Aron,Aron,Aron,Aron,Aron,Aron,Aron,Aron,Aron,Aron,Aron,Aron,Aron
bodyparts,,,head,head,neck,neck,R_shoulder,R_shoulder,L_shoulder,L_shoulder,R_elbow,R_elbow,L_elbow,L_elbow,R_wrist,R_wrist,L_wrist,L_wrist,R_hip,R_hip,L_hip,L_hip,R_knee,R_knee,L_knee,L_knee,R_foot,R_foot,L_foot,L_foot
coords,,,x,y,x,y,x,y,x,y,x,y,x,y,x,y,x,y,x,y,x,y,x,y,x,y,x,y,x,y
labeled-data,Video36,img01613.png,65.03190198003068,168.53957193475767,82.78239328015783,163.62986157514806,,,92.97948402703938,145.50170024735866,100.15521455262268,212.3492951435821,150.38532823170584,198.37550412007775,95.24550419301306,186.6677332625471,108.84162518885512,198.37550412007775,,,202.5037920491004,139.45897980476218,,,234.2280743727319,220.65803575215224,,,308.25139979453866,205.55123464566108
labeled-data,Video36,img30384.png,65.03190198003068,168.53957193475767,81.27171316950873,157.96481116021386,,,92.97948402703938,138.70363974943763,100.15521455262268,206.30657470098564,147.3639680104076,191.19977359449445,87.31443361210518,176.09297248800328,110.35230529950422,195.73181392644182,,,202.5037920491004,139.45897980476218,,,231.2067141514337,218.01434555851628,,,307.8737297668764,208.57259486695932
labeled-data,Video36,img39964.png,65.03190198003068,168.53957193475767,81.27171316950873,157.96481116021386,,,87.69210363976745,139.83664983242446,97.51152435898672,202.90754445202512,146.98629798274533,193.8434637881304,88.06977366742976,171.93860218371822,110.35230529950422,195.73181392644182,,,202.5037920491004,139.45897980476218,,,245.5581752026003,211.59395508825753,,,304.85236954557814,168.5395719347577
labeled-data,Video36,img50217.png,65.03190198003068,168.53957193475767,81.27171316950873,157.96481116021386,,,92.22414397171482,140.59198988774904,99.7775445249604,203.66288450734967,147.74163803806988,198.37550412007775,86.55909355678062,173.07161226670507,112.2406554378156,196.1094839541041,,,203.25913210442496,142.48034002606042,,,233.85040434506965,216.50366544786718,,,307.8737297668764,210.08327497760845
labeled-data,Video36,img55018.png,65.03190198003068,168.53957193475767,81.27171316950873,157.96481116021386,,,96.37851427599989,138.70363974943763,107.33094507820599,203.2852144796874,,,87.31443361210518,173.82695232202963,,,,,205.52515227039865,145.87937027502093,,,236.49409453870555,218.01434555851628,,,301.83100932427993,184.77938312423572
