scorer,,,Aron,Aron,Aron,Aron,Aron,Aron,Aron,Aron,Aron,Aron,Aron,Aron,Aron,Aron,Aron,Aron,Aron,Aron,Aron,Aron,Aron,Aron,Aron,Aron,Aron,Aron,Aron,Aron
bodyparts,,,head,head,neck,neck,R_shoulder,R_shoulder,L_shoulder,L_shoulder,R_elbow,R_elbow,L_elbow,L_elbow,R_wrist,R_wrist,L_wrist,L_wrist,R_hip,R_hip,L_hip,L_hip,R_knee,R_knee,L_knee,L_knee,R_foot,R_foot,L_foot,L_foot
coords,,,x,y,x,y,x,y,x,y,x,y,x,y,x,y,x,y,x,y,x,y,x,y,x,y,x,y,x,y
labeled-data,Video35,img07065.png,64.1723911177654,167.2658458622997,82.79569004445027,155.6262840331217,92.10733950779267,186.82030973531877,86.98593230295434,126.76017069676018,120.97345284415418,208.70268597417348,147.51165381468007,125.82900575042592,104.21248381013784,164.00676855012986,179.63684446321145,171.9216705939709,,,187.55174650705254,124.89784080409169,,,220.60810210191812,214.28967565217894,304.87852974516704,200.78778393033244,283.4617359794795,158.4197788721244
labeled-data,Video35,img15547.png,62.58234280174291,145.6410502067535,92.04060495940071,141.86434993013074,87.50856462745335,169.8119319771394,93.55128507004984,105.6080272745519,135.47265814056283,196.24883391349897,147.55809902575578,94.27792644468353,105.63672595524277,153.19445075999909,180.79306146003637,121.84783846402992,172.86199087912848,188.6954333602534,179.28238134938726,138.08764965350792,239.70958577535197,205.69058460505596,252.17269668820717,153.19445075999909,289.93969945443513,205.31291457739366,314.8659212801455,173.96630228142448
labeled-data,Video35,img25267.png,62.58234280174291,145.6410502067535,92.04060495940071,141.86434993013074,87.50856462745335,167.16824178350345,96.57264529134808,103.34200710857822,135.47265814056283,196.24883391349897,147.55809902575578,94.27792644468353,105.63672595524277,153.19445075999909,180.79306146003637,121.84783846402992,172.86199087912848,188.6954333602534,179.28238134938726,138.08764965350792,239.70958577535197,205.69058460505596,252.17269668820717,153.19445075999909,289.93969945443513,205.31291457739366,314.8659212801455,173.96630228142448
labeled-data,Video35,img36132.png,62.58234280174291,145.6410502067535,92.04060495940071,141.86434993013074,87.50856462745335,169.8119319771394,93.55128507004984,105.6080272745519,135.47265814056283,196.24883391349897,139.24935841718565,86.34685586377567,105.63672595524277,153.19445075999909,133.20663797458917,120.71482838104309,172.86199087912848,188.6954333602534,184.5697617366592,131.6672591832492,239.70958577535197,205.69058460505596,254.81638688184313,149.04008045571402,289.93969945443513,205.31291457739366,314.8659212801455,173.96630228142448
labeled-data,Video35,img36966.png,46.72020163992718,136.95463957052112,76.93380385290953,138.84298970883248,79.95516407420777,177.365332530385,81.08817415719462,105.98569730221418,120.74352706173396,202.29155435609545,121.87653714472079,86.34685586377564,127.16391753199271,166.0352317005166,131.69595786394007,127.8905589066264,176.6386911557513,178.49834261337185,182.30374157068547,127.8905589066264,249.15133646690896,201.5362143007709,254.43871685418083,118.07113818740713,312.59990111417187,175.09931236441133,319.7756316397552,130.91191912792465
