scorer,,,Aron,Aron,Aron,Aron,Aron,Aron,Aron,Aron,Aron,Aron,Aron,Aron,Aron,Aron,Aron,Aron,Aron,Aron,Aron,Aron,Aron,Aron,Aron,Aron,Aron,Aron,Aron,Aron
bodyparts,,,head,head,neck,neck,R_shoulder,R_shoulder,L_shoulder,L_shoulder,R_elbow,R_elbow,L_elbow,L_elbow,R_wrist,R_wrist,L_wrist,L_wrist,R_hip,R_hip,L_hip,L_hip,R_knee,R_knee,L_knee,L_knee,R_foot,R_foot,L_foot,L_foot
coords,,,x,y,x,y,x,y,x,y,x,y,x,y,x,y,x,y,x,y,x,y,x,y,x,y,x,y,x,y
labeled-data,Video96,img05811.png,47.91510451424641,177.70389857653538,65.14165602142988,176.307151157034,73.52214053843805,131.61123373299034,80.97146010911199,199.58627481539003,99.59475903579686,101.81395545029463,67.00398591409838,228.91797062491867,131.71994968432818,116.2470121184754,40.46578494357247,200.9830222348914,169.43213001086497,134.4047285719931,171.2944599035335,182.82530578137371,246.25323808343995,148.37220276700677,241.13183087860165,211.2258366445681,311.90036680000406,122.29958426964798,312.36594927317117,153.02802749867797
labeled-data,Video96,img10207.png,47.91510451424641,177.70389857653538,65.14165602142988,176.307151157034,73.52214053843805,131.61123373299034,80.97146010911199,199.58627481539003,100.99150645529822,104.60745028929733,67.00398591409838,228.91797062491867,139.63485172816928,96.69254824545632,40.46578494357247,200.9830222348914,169.43213001086497,134.4047285719931,171.2944599035335,182.82530578137371,246.25323808343995,148.37220276700677,241.13183087860165,211.2258366445681,311.90036680000406,122.29958426964798,312.36594927317117,153.02802749867797
labeled-data,Video96,img14119.png,47.91510451424641,177.70389857653538,65.14165602142988,176.307151157034,73.52214053843805,131.61123373299034,80.97146010911199,199.58627481539003,100.99150645529822,104.60745028929733,67.00398591409838,228.91797062491867,138.2381043086679,85.98415136261255,40.46578494357247,200.9830222348914,169.43213001086497,134.4047285719931,171.2944599035335,182.82530578137371,246.25323808343995,148.37220276700677,241.13183087860165,211.2258366445681,311.90036680000406,122.29958426964798,312.36594927317117,153.02802749867797
labeled-data,Video96,img25331.png,45.121609675243675,169.32341405952718,63.27932612876141,167.4610841668587,67.00398591409838,132.5423986793246,78.64354774327639,195.39603255688593,49.311851933747775,108.33211007463433,106.57849613330366,234.50496030292416,33.01646537289852,150.2345326596752,146.15300635250895,244.28219223943367,172.69120732303486,129.7489038403219,178.74377947420743,168.39224911319295,237.40717109326465,115.31584717214115,263.01420711745635,199.12069234222295,319.349686370678,133.4735636256589,323.5399286291821,174.91040373753268
labeled-data,Video96,img27858.png,45.121609675243675,169.32341405952718,63.27932612876141,167.4610841668587,67.00398591409838,132.5423986793246,78.64354774327639,195.39603255688593,49.311851933747775,108.33211007463433,106.57849613330366,234.50496030292416,33.01646537289852,150.2345326596752,146.15300635250895,244.28219223943367,172.69120732303486,129.7489038403219,178.74377947420743,168.39224911319295,237.40717109326465,115.31584717214115,263.01420711745635,199.12069234222295,319.349686370678,133.4735636256589,323.5399286291821,174.91040373753268
