scorer,,,Aron,Aron,Aron,Aron,Aron,Aron,Aron,Aron,Aron,Aron,Aron,Aron,Aron,Aron,Aron,Aron,Aron,Aron,Aron,Aron,Aron,Aron,Aron,Aron,Aron,Aron,Aron,Aron
bodyparts,,,head,head,neck,neck,R_shoulder,R_shoulder,L_shoulder,L_shoulder,R_elbow,R_elbow,L_elbow,L_elbow,R_wrist,R_wrist,L_wrist,L_wrist,R_hip,R_hip,L_hip,L_hip,R_knee,R_knee,L_knee,L_knee,R_foot,R_foot,L_foot,L_foot
coords,,,x,y,x,y,x,y,x,y,x,y,x,y,x,y,x,y,x,y,x,y,x,y,x,y,x,y,x,y
labeled-data,Video63,img04042.png,339.4291278462654,137.3504807470229,318.65727632484004,137.7281507746852,,,303.5504752183489,149.81359165987814,,,259.7407520095245,126.77571997247908,,,296.75241472042785,90.89706734456254,,,210.26597838576583,157.744662240786,,,141.530033351231,93.16308751053622,,,52.905514647556714,149.8687249121386
labeled-data,Video63,img07422.png,339.4291278462654,137.3504807470229,318.65727632484004,137.7281507746852,,,304.94722263785025,154.46941639154934,,,262.06866437536013,130.50037975781606,,,296.2868322472607,93.22497971039817,,,211.6627258052672,157.744662240786,,,141.530033351231,98.75007718854165,,,49.180854862219746,144.74731770730025
labeled-data,Video63,img14200.png,339.3212286223887,159.94158195988692,311.8518627055285,158.07925206721845,303.93696066168746,130.1443036771912,296.95322356418063,189.27327776941556,,,,,,,,,204.76789387709067,124.09173152601859,205.2334763502578,180.42721077924023,140.51751258002795,111.52100475050631,133.06819300935402,174.84022110123476,39.951698375929816,118.039159374846,43.67635816126678,180.89279325240736
labeled-data,Video63,img21149.png,340.25239356872294,161.33832937938828,310.45511528602714,161.3383293793883,302.5402132421861,128.2819737845227,298.8155534568491,189.27327776941556,,,,,,,,,206.16464129659204,128.28197378452273,206.63022376975917,184.61745303774435,140.51751258002795,114.78008206267614,133.06819300935402,178.0992984134046,39.951698375929816,118.039159374846,43.67635816126678,180.89279325240736
labeled-data,Video63,img26859.png,340.25239356872294,161.33832937938828,310.45511528602714,161.3383293793883,302.5402132421861,128.2819737845227,298.8155534568491,189.27327776941556,,,,,,,,,206.16464129659204,128.28197378452273,206.63022376975917,184.61745303774435,140.51751258002795,114.78008206267614,133.06819300935402,178.0992984134046,39.951698375929816,118.039159374846,43.67635816126678,180.89279325240736
