scorer,,,Aron,Aron,Aron,Aron,Aron,Aron,Aron,Aron,Aron,Aron,Aron,Aron,Aron,Aron,Aron,Aron,Aron,Aron,Aron,Aron,Aron,Aron,Aron,Aron,Aron,Aron,Aron,Aron
bodyparts,,,head,head,neck,neck,R_shoulder,R_shoulder,L_shoulder,L_shoulder,R_elbow,R_elbow,L_elbow,L_elbow,R_wrist,R_wrist,L_wrist,L_wrist,R_hip,R_hip,L_hip,L_hip,R_knee,R_knee,L_knee,L_knee,R_foot,R_foot,L_foot,L_foot
coords,,,x,y,x,y,x,y,x,y,x,y,x,y,x,y,x,y,x,y,x,y,x,y,x,y,x,y,x,y
labeled-data,Video41,img08536.png,302.1580379196876,141.0740824116711,283.5347389930028,146.66107208967657,,,268.6360998516549,155.04155660668476,,,254.20304318347416,86.60093305111796,225.33692984711263,70.30554649026872,294.2431358758466,103.3619020851343,,,160.15538360371568,139.67733499216976,,,148.05023930137054,67.512051651266,,,60.9863168191189,107.0865618704713
labeled-data,Video41,img12836.png,305.88269770502467,137.34942262633413,282.6035740466685,143.86757725067383,,,273.291924583326,157.36946897252037,,,261.18678028098094,89.8600103632878,225.33692984711263,70.30554649026872,302.6236203928548,98.24049488029597,,,160.15538360371568,139.67733499216976,,,148.05023930137054,67.512051651266,,,60.9863168191189,107.0865618704713
labeled-data,Video41,img21806.png,301.2268729733535,149.45456692867927,281.2068266271671,158.30063391885457,,,265.37702253948487,167.612283382197,,,217.88761027643866,141.0740824116711,224.40576490077842,71.23671143660296,244.8913937201317,111.74238660214247,,,167.1391207012225,153.6448091871834,,,157.8274712378801,80.08277842677828,,,71.6947137019627,111.2768041289754
labeled-data,Video41,img27484.png,301.2268729733535,149.45456692867927,282.6035740466685,159.69738133835594,,,265.37702253948487,167.612283382197,,,225.33692984711263,125.7098607971561,228.13042468611542,69.37438154393449,255.59979060297547,97.77491240712884,,,169.9326155402252,154.57597413351763,,,159.22421865738147,81.47952584627964,,,73.55704359463117,115.9326288606466
labeled-data,Video41,img30732.png,302.6236203928549,165.2843710163614,278.4133317881644,159.69738133835594,,,264.44585759315066,175.5271854260381,,,286.79381630517264,211.37703585990639,222.07785253494285,70.30554649026875,310.53852243669576,176.4583503723723,,,169.9326155402252,154.57597413351763,,,150.37815166720617,79.15161348044404,,,73.55704359463117,115.9326288606466
