scorer,,,Aron,Aron,Aron,Aron,Aron,Aron,Aron,Aron,Aron,Aron,Aron,Aron,Aron,Aron,Aron,Aron,Aron,Aron,Aron,Aron,Aron,Aron,Aron,Aron,Aron,Aron,Aron,Aron
bodyparts,,,head,head,neck,neck,R_shoulder,R_shoulder,L_shoulder,L_shoulder,R_elbow,R_elbow,L_elbow,L_elbow,R_wrist,R_wrist,L_wrist,L_wrist,R_hip,R_hip,L_hip,L_hip,R_knee,R_knee,L_knee,L_knee,R_foot,R_foot,L_foot,L_foot
coords,,,x,y,x,y,x,y,x,y,x,y,x,y,x,y,x,y,x,y,x,y,x,y,x,y,x,y,x,y
labeled-data,Video26,img07688.png,310.21459110080406,132.20975756389026,293.4536220667877,130.3474276712218,,,284.1419726034453,148.97072659790663,,,251.55119948174678,99.61898444219179,277.1582355059385,69.82170615949605,283.67639013027815,93.10082981785212,,,186.835235711517,169.92193789042707,,,126.30951419979122,89.37617003251515,,,50.8851535467176,130.3474276712218
labeled-data,Video26,img14669.png,314.87041583247526,135.93441734922726,301.36852411062875,135.93441734922726,,,292.52245712045345,148.0395616515724,,,261.32843141825634,93.56641229101922,246.42979227690847,54.45748454498104,291.1257097009521,110.79296379820272,,,177.98916872134168,153.16096885641073,111.41087505844335,140.59024208089846,135.15558118996654,93.56641229101922,22.95020515669033,118.24228336887666,40.642339137040935,72.61520099849878
labeled-data,Video26,img20935.png,309.2834261544698,146.1772317589039,289.7289622814507,152.6953863832436,279.02056539860695,125.69160293955059,280.4173128181083,188.5452368171119,247.36095722324274,96.35990713002195,241.77396754523727,219.27368004614192,240.3772201257359,131.74417509072316,234.32464797456333,181.56149971960514,182.17941097984578,131.27859261755603,180.31708108717726,184.82057703177497,125.37834925345699,91.23849992518362,97.90898333659682,145.7116492857368,34.589766985868366,77.73660820333711,23.88137010302458,95.42874218368772
labeled-data,Video26,img38338.png,311.6113385203054,132.20975756389026,300.90294163746165,129.88184519805466,,,285.0731375497795,139.1934946613971,253.8791118475824,90.30733497884938,270.17449840843165,82.39243293500832,251.55119948174678,65.16588142782484,309.2834261544698,88.91058755934802,,,175.19567388233895,155.95446369541347,117.46344720961592,113.58645863720542,126.30951419979122,80.06452056917271,23.88137010302458,102.41247928119452,47.160493761380636,123.8292730468821
labeled-data,Video26,img42707.png,311.6113385203054,132.20975756389026,300.90294163746165,129.88184519805466,,,287.86663238878225,139.1934946613971,254.81027679391667,90.77291745201651,270.17449840843165,83.78918035450968,251.55119948174678,65.16588142782484,309.2834261544698,88.91058755934802,,,175.19567388233895,155.95446369541347,117.46344720961592,113.58645863720542,126.30951419979122,80.06452056917271,23.88137010302458,102.41247928119452,47.160493761380636,123.8292730468821
