scorer,,,Aron,Aron,Aron,Aron,Aron,Aron,Aron,Aron,Aron,Aron,Aron,Aron,Aron,Aron,Aron,Aron,Aron,Aron,Aron,Aron,Aron,Aron,Aron,Aron,Aron,Aron,Aron,Aron
bodyparts,,,head,head,neck,neck,R_shoulder,R_shoulder,L_shoulder,L_shoulder,R_elbow,R_elbow,L_elbow,L_elbow,R_wrist,R_wrist,L_wrist,L_wrist,R_hip,R_hip,L_hip,L_hip,R_knee,R_knee,L_knee,L_knee,R_foot,R_foot,L_foot,L_foot
coords,,,x,y,x,y,x,y,x,y,x,y,x,y,x,y,x,y,x,y,x,y,x,y,x,y,x,y,x,y
labeled-data,Video92,img00774.png,343.6649683129375,175.9855357984105,317.1267673424116,160.62131418389552,318.9890972350801,108.94165966234507,302.6937106742309,182.96927289591733,281.2769169085433,75.41972159431236,260.32570561602284,195.5399996714296,254.73871593801738,111.26957202818068,240.3056592698366,152.70641214005445,206.78372120180393,119.18447407202174,208.6460510944724,173.6576234325749,140.6710100120727,125.70262869636144,164.88129861676305,219.28470580295277,41.967525700643066,128.03054106219705,101.56208226603455,153.17199461322159
labeled-data,Video92,img12366.png,332.95657143009373,186.22835020808716,315.2644374497431,171.3297110667393,297.1067209962254,175.5199533252434,,,236.11541701133257,183.43485536908443,258.4633757233544,204.3860666616049,279.4145870158748,200.6614068762679,300.36579830839526,220.21587074928703,210.50838098714087,117.32214417935324,210.50838098714087,110.33840708184644,140.6710100120727,192.74650483242687,136.0151852804015,205.78281408110627,97.83742248069758,105.68258235017521,47.0889329054814,162.483644076564
labeled-data,Video92,img20181.png,332.95657143009373,186.22835020808716,315.2644374497431,171.3297110667393,296.6411385230583,179.7101955837475,,,237.04658195766677,188.09068010075563,258.4633757233544,204.3860666616049,279.4145870158748,200.6614068762679,295.70997357672405,221.14703569562124,210.50838098714087,117.32214417935324,210.50838098714087,110.33840708184644,140.6710100120727,192.74650483242687,136.0151852804015,205.78281408110627,101.09649979286742,103.82025245750671,47.0889329054814,162.483644076564
labeled-data,Video92,img28480.png,326.43841680575406,189.02184504708993,311.5397776644062,172.72645848624066,301.2969632547295,159.22456676439415,,,237.97774690400104,175.9855357984105,311.5397776644062,228.59635526629518,263.5847829281927,189.95300999342413,346.92404562510734,198.79907698359943,214.69862324564497,121.51238643785734,213.3018758261436,114.06306686718341,153.241736787585,195.5399996714296,153.241736787585,188.55626257392277,92.71601527585925,103.82025245750674,56.400582368823805,167.1394688082352
labeled-data,Video92,img48450.png,320.8514271277486,198.33349451043233,306.8839529327349,183.43485536908443,291.05414884505285,178.31344816424613,,,229.13167991382574,180.64136053008173,311.5397776644062,226.7340253736267,261.7224530355242,197.40232956409807,342.7338033666033,198.33349451043233,197.47207173846147,130.35845342803265,197.93765421162863,117.32214417935324,144.8612522705768,200.6614068762679,139.27426259257135,205.78281408110627,90.38810291002365,127.56495858902991,45.226603012812916,171.79529353990642
