scorer,,,Aron,Aron,Aron,Aron,Aron,Aron,Aron,Aron,Aron,Aron,Aron,Aron,Aron,Aron,Aron,Aron,Aron,Aron,Aron,Aron,Aron,Aron,Aron,Aron,Aron,Aron,Aron,Aron
bodyparts,,,head,head,neck,neck,R_shoulder,R_shoulder,L_shoulder,L_shoulder,R_elbow,R_elbow,L_elbow,L_elbow,R_wrist,R_wrist,L_wrist,L_wrist,R_hip,R_hip,L_hip,L_hip,R_knee,R_knee,L_knee,L_knee,R_foot,R_foot,L_foot,L_foot
coords,,,x,y,x,y,x,y,x,y,x,y,x,y,x,y,x,y,x,y,x,y,x,y,x,y,x,y,x,y
labeled-data,Video20,img00117.png,329.6236407009204,145.5807031448703,303.52507348245797,155.36766585179373,286.8056788581305,128.86130852054282,297.4082217906308,186.3597144237179,259.4837413013026,100.31600062534955,,,243.98771701534054,68.91616194063693,,,203.61649584928142,136.20153055073538,200.35417494697361,182.28181329583313,149.78820096120268,108.06401276833057,147.3414602844718,138.64827122746624,63.336697050045856,143.54175258092795,94.32874562196999,184.728553972564
labeled-data,Video20,img02250.png,329.6236407009204,145.5807031448703,303.52507348245797,155.36766585179373,286.8056788581305,128.86130852054282,297.4082217906308,186.3597144237179,259.4837413013026,100.31600062534955,,,243.98771701534054,68.91616194063693,,,203.61649584928142,136.20153055073538,200.35417494697361,182.28181329583313,152.23494163793356,109.28738310669598,146.93367017168327,139.46385145304322,63.336697050045856,143.54175258092795,83.31841257668113,179.83507261910228
labeled-data,Video20,img07034.png,329.6236407009204,145.5807031448703,303.52507348245797,155.36766585179373,286.8056788581305,128.86130852054282,297.4082217906308,186.3597144237179,263.96943254197583,101.94716107650345,,,233.79296419562866,70.54732239179083,,,200.76196505976208,134.16257998679302,200.76196505976208,183.09739352141008,150.1959910739912,105.61727209159972,145.30250972052937,138.64827122746624,63.74448716283433,141.50280201698558,84.94957302783503,179.83507261910228
labeled-data,Video20,img10838.png,329.6236407009204,145.5807031448703,303.52507348245797,155.36766585179373,286.8056788581305,128.86130852054282,297.4082217906308,186.3597144237179,263.96943254197583,101.94716107650345,,,233.79296419562866,70.54732239179083,,,200.76196505976208,134.16257998679302,198.31522438303125,183.912973746987,147.34146028447185,110.10296333227294,141.6323987054331,145.58070314487034,63.74448716283433,141.50280201698558,83.72620268946959,181.46623307025618
labeled-data,Video20,img19967.png,329.6236407009204,145.5807031448703,303.52507348245797,155.36766585179373,286.8056788581305,128.86130852054282,294.5536910011115,185.13634408535248,262.7460622036104,97.86925994861869,,,228.89948284216695,63.61489047438673,,,200.76196505976208,134.16257998679302,198.31522438303125,183.912973746987,147.34146028447185,110.10296333227294,141.6323987054331,145.58070314487034,63.74448716283433,141.50280201698558,83.72620268946959,181.46623307025618
