scorer,,,Aron,Aron,Aron,Aron,Aron,Aron,Aron,Aron,Aron,Aron,Aron,Aron,Aron,Aron,Aron,Aron,Aron,Aron,Aron,Aron,Aron,Aron,Aron,Aron,Aron,Aron,Aron,Aron
bodyparts,,,head,head,neck,neck,R_shoulder,R_shoulder,L_shoulder,L_shoulder,R_elbow,R_elbow,L_elbow,L_elbow,R_wrist,R_wrist,L_wrist,L_wrist,R_hip,R_hip,L_hip,L_hip,R_knee,R_knee,L_knee,L_knee,R_foot,R_foot,L_foot,L_foot
coords,,,x,y,x,y,x,y,x,y,x,y,x,y,x,y,x,y,x,y,x,y,x,y,x,y,x,y,x,y
labeled-data,Video110,img01822.png,337.8801449040923,127.61525998116275,318.1694789724796,131.119378369005,294.5166798545445,120.60702320547827,300.6488870332684,135.0615115553275,272.6159399305305,91.69804650577977,270.86388073660936,101.77238687082622,249.4011556110756,65.41715859696296,312.475286592236,93.88812049818117,204.72364616608704,122.3590823993994,199.0294537858434,147.32592591277538,169.24444748918435,63.227084604561554,161.79819591501956,74.17745456656856,60.17876266759456,106.59054965410931,64.99692545087765,132.43342276444582
labeled-data,Video110,img10700.png,337.8801449040923,127.61525998116275,318.1694789724796,131.119378369005,294.5166798545445,120.60702320547827,300.64888703326847,137.6896003462092,272.6159399305305,91.69804650577977,269.9878511396488,102.64841646778677,249.83917040955586,61.91304020912072,312.475286592236,93.88812049818117,204.28563136760678,125.42518598876134,198.59143898736315,150.39202950213732,168.8064326907041,66.2931881939235,161.3601811165393,77.2435581559305,60.17876266759456,106.59054965410931,64.99692545087765,132.43342276444582
labeled-data,Video110,img14081.png,337.8801449040923,127.61525998116275,318.1694789724796,131.119378369005,294.5166798545445,120.60702320547827,299.3348426378276,139.8796743386106,272.6159399305305,91.69804650577977,269.54983634116854,100.0203276769051,249.83917040955586,61.91304020912072,310.7232273983149,90.82201690881921,204.28563136760678,125.42518598876134,198.59143898736315,150.39202950213732,168.8064326907041,66.2931881939235,161.3601811165393,77.2435581559305,60.17876266759456,106.59054965410931,64.99692545087765,132.43342276444582
labeled-data,Video110,img18205.png,337.8801449040923,125.42518598876134,311.1612421967952,124.1111415933205,294.0786650560642,109.21863844499097,296.26873904846565,132.8714375629261,284.8803542879784,95.6401796921023,261.66556996852347,97.39223888602342,253.78130359587843,61.47502541064044,291.4505762651826,76.80554335745025,216.55004572505462,117.5409196161163,211.29386814329123,145.57386671885425,160.04613672109843,64.5411290000024,156.10400353477593,79.43363214833192,40.03008193750167,71.98738057416716,53.60854069039036,92.57407610274034
