scorer,,,Aron,Aron,Aron,Aron,Aron,Aron,Aron,Aron,Aron,Aron,Aron,Aron,Aron,Aron,Aron,Aron,Aron,Aron,Aron,Aron,Aron,Aron,Aron,Aron,Aron,Aron,Aron,Aron
bodyparts,,,head,head,neck,neck,R_shoulder,R_shoulder,L_shoulder,L_shoulder,R_elbow,R_elbow,L_elbow,L_elbow,R_wrist,R_wrist,L_wrist,L_wrist,R_hip,R_hip,L_hip,L_hip,R_knee,R_knee,L_knee,L_knee,R_foot,R_foot,L_foot,L_foot
coords,,,x,y,x,y,x,y,x,y,x,y,x,y,x,y,x,y,x,y,x,y,x,y,x,y,x,y,x,y
labeled-data,Video123,img00610.png,346.8698278436305,134.57419362755937,330.1212494616522,131.7146802452704,315.0066787266962,114.96610186329208,314.18967490318505,130.4891745100037,304.794130932807,75.34141642300199,265.1694454925169,95.35801009902482,337.06578196149684,110.06407892222528,300.30060990349574,84.3284584816245,183.8775650531589,158.67580642113788,189.18808990598126,145.6037452449597,129.5468107896683,129.67217068649256,154.05692549500242,79.0179336288021,47.846428438554724,117.4171133338255,71.94804123213324,130.89767642175926
labeled-data,Video123,img19676.png,341.15080107905254,118.23411715733663,323.5852188735631,120.68512862787004,306.42813857982924,110.8810827457364,308.4706481386071,131.30617833351482,301.11761372700687,74.93291451124642,259.45041872793894,96.9920177460471,342.7848087260748,66.76287627613506,286.82004681556197,76.97542407002426,189.5965918177368,161.94382171518242,187.1455803472034,167.66284847976038,140.1678604953131,114.55759995153652,131.99782226020176,132.12318215702595,47.02942461504358,134.1656917158038,43.35290740924347,111.28958465749197
labeled-data,Video123,img21137.png,342.3763068143192,112.1065884810031,320.31720357951855,117.4171133338255,308.0621462268515,101.8940406871139,307.65364431509596,121.50213245138117,300.7091118152513,76.97542407002426,262.71843402198346,89.2304814226913,342.3763068143192,85.55396421689119,297.44109652120676,73.29890686422415,195.72412049407035,153.77378348007107,200.62614343513718,143.96973759793744,128.72980696615718,120.27662671611448,182.65205931789217,65.53737054086837,43.35290740924347,126.404155392448,106.26220181960095,91.68149289322471
labeled-data,Video123,img28995.png,340.74229916729695,118.64261906909219,321.54270931478527,125.17864965718128,306.0196366680737,109.24707509871415,310.51315769738494,128.44666495122584,296.21559078594004,75.34141642300199,255.77390152213883,105.16205598115845,335.023272402719,92.90699862849142,272.93098181587266,76.15842024651313,201.85164917040385,165.21183700922697,202.66865299391498,158.67580642113788,140.57636240706864,103.93655024589175,143.02737387760206,121.50213245138117,62.55249726175518,135.79969936282606,48.663432262065854,108.83857318695856
labeled-data,Video123,img44148.png,343.60181254958593,126.40415539244799,321.54270931478527,125.17864965718128,306.0196366680737,109.24707509871415,310.51315769738494,128.44666495122584,304.3856290210514,76.15842024651313,259.45041872793894,99.4430292165805,341.9678049025636,86.37096804040233,281.10102005098406,74.52441259949086,201.85164917040385,165.21183700922697,202.66865299391498,158.67580642113788,140.57636240706864,103.93655024589175,143.02737387760206,121.50213245138117,62.55249726175518,135.79969936282606,48.663432262065854,111.28958465749197
