scorer,,,Aron,Aron,Aron,Aron,Aron,Aron,Aron,Aron,Aron,Aron,Aron,Aron,Aron,Aron,Aron,Aron,Aron,Aron,Aron,Aron,Aron,Aron,Aron,Aron,Aron,Aron,Aron,Aron
bodyparts,,,head,head,neck,neck,R_shoulder,R_shoulder,L_shoulder,L_shoulder,R_elbow,R_elbow,L_elbow,L_elbow,R_wrist,R_wrist,L_wrist,L_wrist,R_hip,R_hip,L_hip,L_hip,R_knee,R_knee,L_knee,L_knee,R_foot,R_foot,L_foot,L_foot
coords,,,x,y,x,y,x,y,x,y,x,y,x,y,x,y,x,y,x,y,x,y,x,y,x,y,x,y,x,y
labeled-data,Video27,img12609.png,313.1282254845415,133.31106691691298,285.6588595676813,119.80917519506647,277.74395752384027,84.8904897075324,267.9667255873307,149.60645347776224,230.72012773396102,67.19835572718179,236.3071174119665,171.95441218978405,220.94289579745146,96.0644690635433,197.19818966592828,198.02703068714283,173.4534835344051,103.04820616105013,179.04047321241055,149.60645347776222,102.21936513983556,123.06825250723634,131.08547847619707,195.23353584814006,33.77874158426876,118.87801024873222,34.70990653060301,145.88179369242522
labeled-data,Video27,img13656.png,313.1282254845415,133.31106691691298,285.6588595676813,119.80917519506647,277.74395752384027,84.8904897075324,267.9667255873307,149.60645347776224,229.78896278762676,71.38859798568588,236.3071174119665,171.95441218978405,207.9065865487721,97.46121648304468,197.19818966592828,198.02703068714283,173.4534835344051,103.04820616105013,179.04047321241055,149.60645347776222,102.21936513983556,123.06825250723634,131.08547847619707,195.23353584814006,33.77874158426876,118.87801024873222,34.70990653060301,145.88179369242522
labeled-data,Video27,img17315.png,313.1282254845415,133.31106691691298,285.6588595676813,119.80917519506647,277.74395752384027,84.8904897075324,267.9667255873307,149.60645347776224,222.80522569011993,69.06068561985028,236.3071174119665,171.95441218978405,182.76513299774754,79.30350002952694,197.19818966592828,198.02703068714283,173.4534835344051,103.04820616105013,179.04047321241055,149.60645347776222,102.21936513983556,123.06825250723634,131.08547847619707,195.23353584814006,33.77874158426876,118.87801024873222,34.70990653060301,145.88179369242522
labeled-data,Video27,img28311.png,309.8691481723716,118.87801024873224,280.53745236284294,123.99941745357057,271.69138537266764,98.39238142937891,273.55371526533617,163.10834519960875,226.52988547545692,67.66393820034892,242.35968956313906,191.043293589636,260.05182354348966,61.14578357600923,241.4285246168048,165.43625756544435,187.88654020258585,109.5663607853898,195.80144224642692,169.62649982394845,113.39334449584646,82.5625773416968,122.7049939591889,176.61023692145523,46.81505083294816,142.62271638025538,53.333205457287846,178.4725668141237
